<?xml version="1.0" encoding="utf-8"?>
<!-- Generator: Adobe Illustrator 16.0.0, SVG Export Plug-In . SVG Version: 6.00 Build 0)  -->
<!DOCTYPE svg PUBLIC "-//W3C//DTD SVG 1.1//EN" "http://www.w3.org/Graphics/SVG/1.1/DTD/svg11.dtd">
<svg version="1.1" id="Layer_1" xmlns="http://www.w3.org/2000/svg" xmlns:xlink="http://www.w3.org/1999/xlink" x="0px" y="0px"
	 width="174.75px" height="181px" viewBox="0 0 174.75 181" enable-background="new 0 0 174.75 181" xml:space="preserve">
<g>
	<path fill="#FFFFFF" d="M55.363,56.578c-2.805-0.27-5.296,1.788-5.565,4.591l0.01-0.082c-0.01,0.048-0.021,0.097-0.031,0.146
		c-1.084,5.061-5.817,8.619-11.091,8.11c-5.678-0.548-9.835-5.595-9.291-11.274c0.55-5.676,5.597-9.836,11.274-9.29
		c2.576,0.249,4.838,1.426,6.489,3.163l0.006-0.001c0.822,0.896,1.964,1.506,3.275,1.632c2.797,0.272,5.287-1.779,5.556-4.578
		c0.137-1.411-0.313-2.739-1.152-3.747v0.003c-3.308-3.635-7.919-6.098-13.195-6.607c-0.178-0.017-0.352-0.012-0.53-0.024
		c-0.003-0.009-0.003-0.02-0.006-0.028l3.91-13.013c0.882-2.943-0.789-6.047-3.729-6.931c-2.942-0.885-6.049,0.785-6.931,3.729
		l-5.143,18.56c0,0-0.324,0.337-0.537,0.788c0.017-0.291,0.038-0.581,0.046-0.872l0.714-14.299c-0.08-1.987-1.403-3.795-3.416-4.401
		c-2.542-0.764-5.215,0.678-5.979,3.215c-0.114,0.379-0.178,0.756-0.196,1.132l0,0.009l-0.764,32.394c0,0,0.026,0.051,0.084,0.115
		c-0.031,10.47,7.909,19.436,18.54,20.461c10.898,1.055,20.623-6.631,22.247-17.327l-0.005-0.004
		C60.223,59.344,58.167,56.852,55.363,56.578z"/>
	<g>
		<path fill="none" d="M123.896,55.017c-1.474,0.093-2.683,0.461-3.713,1.884v4.127c0,2.176,1.769,3.163,3.407,3.163
			c2.271,0,3.203-1.674,3.215-1.689c0.039-0.071,0.08-0.137,0.128-0.199v0.001c-0.006,0,0.82-1.4,0.299-5.044
			C126.967,55.433,124.519,54.96,123.896,55.017z"/>
		<path fill="none" d="M108.58,55.017c-1.474,0.093-2.681,0.46-3.711,1.884v4.127c0,2.176,1.766,3.163,3.412,3.163
			c2.271,0,3.203-1.674,3.214-1.689c0.034-0.071,0.074-0.137,0.126-0.199v0.001c-0.005,0,0.82-1.4,0.301-5.044
			C111.656,55.433,109.203,54.96,108.58,55.017z"/>
		<path fill="none" d="M78.685,54.972c-1.474,0.094-2.681,0.466-3.709,1.887v4.125c0,2.176,1.763,3.166,3.405,3.166
			c2.274,0,3.207-1.677,3.217-1.692c0.039-0.069,0.075-0.137,0.125-0.199v0.001c-0.001,0,0.824-1.399,0.301-5.042
			C81.761,55.39,79.303,54.924,78.685,54.972z"/>
		<path fill="#FFFFFF" d="M97.933,52.019c-0.771,0-1.396,0.626-1.396,1.397v8.409c0,1.959-1.944,2.48-3.092,2.48
			c-0.856,0-1.67-0.246-2.225-0.678c-0.575-0.44-0.855-1.032-0.855-1.802v-8.409c0-0.771-0.623-1.397-1.396-1.397
			c-0.773,0-1.395,0.626-1.395,1.397v8.409c0,1.625,0.686,3.051,1.94,4.015c1.053,0.812,2.45,1.256,3.93,1.256
			c2.927,0,5.882-1.809,5.882-5.271v-8.409C99.327,52.645,98.705,52.019,97.933,52.019z"/>
		<path fill="#FFFFFF" d="M142.683,64.339c-0.755-0.15-0.789-1.084-0.789-1.292v-17.11c0-0.774-0.625-1.396-1.393-1.396
			c-0.776,0-1.399,0.622-1.399,1.396v17.071c-0.034,1.194,0.561,3.575,3.028,4.071c0.093,0.018,0.186,0.028,0.275,0.028
			c0.653,0,1.24-0.458,1.372-1.125C143.927,65.228,143.436,64.492,142.683,64.339z"/>
		<path fill="#FFFFFF" d="M136.4,64.339c-0.749-0.15-0.785-1.087-0.785-1.292v-17.11c0-0.774-0.624-1.396-1.396-1.396
			c-0.775,0-1.398,0.622-1.398,1.396v17.073c-0.033,1.192,0.562,3.573,3.03,4.069c0.097,0.018,0.185,0.028,0.276,0.028
			c0.649,0,1.235-0.458,1.37-1.125C137.649,65.228,137.158,64.492,136.4,64.339z"/>
		<path fill="#FFFFFF" d="M154.66,63.903h-5.384l6.526-9.2c0.303-0.427,0.338-0.987,0.103-1.45c-0.24-0.464-0.719-0.753-1.245-0.753
			h-8.085c-0.773,0-1.397,0.625-1.397,1.396c0,0.77,0.624,1.394,1.397,1.394h5.382l-6.523,9.205
			c-0.304,0.427-0.345,0.984-0.104,1.447c0.242,0.467,0.722,0.758,1.246,0.758h8.085c0.774,0,1.397-0.626,1.397-1.399
			C156.058,64.534,155.435,63.903,154.66,63.903z"/>
		<path fill="#FFFFFF" d="M78.505,52.183c-1.079,0.072-2.321,0.267-3.53,0.957V46.1c0-0.771-0.623-1.396-1.395-1.396
			c-0.776,0-1.402,0.625-1.402,1.396v10.305v0.046v4.532c0,3.398,2.665,5.959,6.202,5.959c3.628,0,5.315-2.542,5.636-3.094
			c0.365-0.536,1.415-2.555,0.773-7.03C84.279,53.29,80.465,52.058,78.505,52.183z M81.722,62.259v-0.001
			c-0.049,0.062-0.085,0.13-0.125,0.199c-0.01,0.015-0.943,1.692-3.217,1.692c-1.642,0-3.405-0.99-3.405-3.166v-4.125
			c1.029-1.421,2.236-1.793,3.709-1.887c0.618-0.048,3.076,0.418,3.338,2.245C82.546,60.86,81.72,62.259,81.722,62.259z"/>
		<path fill="#FFFFFF" d="M108.404,52.225c-1.079,0.073-2.323,0.267-3.535,0.958v-7.039c0-0.771-0.62-1.399-1.393-1.399
			s-1.397,0.627-1.397,1.399v10.306v0.043v4.534c0,3.396,2.665,5.959,6.202,5.959c3.627,0,5.311-2.54,5.634-3.096
			c0.361-0.538,1.414-2.552,0.77-7.03C114.176,53.335,110.361,52.111,108.404,52.225z M111.621,62.304v-0.001
			c-0.052,0.062-0.092,0.128-0.126,0.199c-0.011,0.015-0.943,1.689-3.214,1.689c-1.646,0-3.412-0.987-3.412-3.163v-4.127
			c1.03-1.424,2.237-1.792,3.711-1.884c0.623-0.057,3.076,0.417,3.342,2.244C112.441,60.904,111.616,62.304,111.621,62.304z"/>
		<path fill="#FFFFFF" d="M123.716,52.225c-1.08,0.073-2.325,0.267-3.533,0.958v-7.039c0-0.771-0.625-1.399-1.395-1.399
			c-0.775,0-1.397,0.627-1.397,1.399v10.306v0.043v4.534c0,3.396,2.665,5.959,6.199,5.959c3.627,0,5.311-2.54,5.636-3.096
			c0.362-0.538,1.415-2.552,0.772-7.03C129.485,53.335,125.674,52.105,123.716,52.225z M126.933,62.304v-0.001
			c-0.048,0.062-0.089,0.128-0.128,0.199c-0.012,0.015-0.943,1.689-3.215,1.689c-1.639,0-3.407-0.987-3.407-3.163v-4.127
			c1.03-1.423,2.239-1.792,3.713-1.884c0.623-0.057,3.071,0.417,3.336,2.244C127.753,60.904,126.927,62.304,126.933,62.304z"/>
	</g>
</g>
<g>
	<path fill="#00789C" d="M55.363,138.325c-2.805-0.27-5.296,1.788-5.565,4.592l0.01-0.081c-0.01,0.048-0.021,0.096-0.031,0.146
		c-1.084,5.06-5.817,8.618-11.091,8.108c-5.678-0.548-9.835-5.595-9.291-11.273c0.55-5.677,5.597-9.837,11.274-9.289
		c2.576,0.249,4.838,1.426,6.489,3.163l0.006-0.003c0.822,0.896,1.964,1.507,3.275,1.633c2.797,0.272,5.287-1.779,5.556-4.577
		c0.137-1.41-0.313-2.74-1.152-3.747V127c-3.308-3.636-7.919-6.098-13.195-6.607c-0.178-0.018-0.352-0.012-0.53-0.023
		c-0.003-0.009-0.003-0.021-0.006-0.03l3.91-13.011c0.882-2.944-0.789-6.048-3.729-6.932c-2.942-0.887-6.049,0.785-6.931,3.729
		l-5.143,18.559c0,0-0.324,0.338-0.537,0.787c0.017-0.29,0.038-0.581,0.046-0.871l0.714-14.3c-0.08-1.985-1.403-3.795-3.416-4.399
		c-2.542-0.764-5.215,0.677-5.979,3.214c-0.114,0.38-0.178,0.758-0.196,1.132l0,0.009l-0.764,32.394c0,0,0.026,0.051,0.084,0.117
		c-0.031,10.468,7.909,19.436,18.54,20.46c10.898,1.055,20.623-6.631,22.247-17.327l-0.005-0.003
		C60.223,141.093,58.167,138.601,55.363,138.325z"/>
	<g>
		<path fill="#00789C" d="M97.933,133.767c-0.771,0-1.396,0.626-1.396,1.397v8.409c0,1.959-1.944,2.479-3.092,2.479
			c-0.856,0-1.67-0.245-2.225-0.678c-0.575-0.44-0.855-1.032-0.855-1.802v-8.409c0-0.771-0.623-1.397-1.396-1.397
			c-0.773,0-1.395,0.626-1.395,1.397v8.409c0,1.625,0.686,3.051,1.94,4.015c1.053,0.812,2.45,1.257,3.93,1.257
			c2.927,0,5.882-1.81,5.882-5.271v-8.409C99.327,134.393,98.705,133.767,97.933,133.767z"/>
		<path fill="#00789C" d="M142.683,146.088c-0.755-0.15-0.789-1.085-0.789-1.293v-17.11c0-0.774-0.625-1.396-1.393-1.396
			c-0.776,0-1.399,0.621-1.399,1.396v17.071c-0.034,1.193,0.561,3.575,3.028,4.07c0.093,0.019,0.186,0.029,0.275,0.029
			c0.653,0,1.24-0.459,1.372-1.125C143.927,146.976,143.436,146.24,142.683,146.088z"/>
		<path fill="#00789C" d="M136.4,146.088c-0.749-0.15-0.785-1.088-0.785-1.293v-17.11c0-0.774-0.624-1.396-1.396-1.396
			c-0.775,0-1.398,0.621-1.398,1.396v17.073c-0.033,1.191,0.562,3.573,3.03,4.068c0.097,0.019,0.185,0.029,0.276,0.029
			c0.649,0,1.235-0.459,1.37-1.125C137.649,146.976,137.158,146.24,136.4,146.088z"/>
		<path fill="#00789C" d="M154.66,145.651h-5.384l6.526-9.199c0.303-0.427,0.338-0.987,0.103-1.45
			c-0.24-0.464-0.719-0.753-1.245-0.753h-8.085c-0.773,0-1.397,0.624-1.397,1.396c0,0.77,0.624,1.395,1.397,1.395h5.382
			l-6.523,9.204c-0.304,0.427-0.345,0.984-0.104,1.446c0.242,0.468,0.722,0.758,1.246,0.758h8.085c0.774,0,1.397-0.626,1.397-1.398
			C156.058,146.282,155.435,145.651,154.66,145.651z"/>
		<path fill="#00789C" d="M78.505,133.932c-1.079,0.071-2.321,0.267-3.53,0.957v-7.041c0-0.771-0.623-1.396-1.395-1.396
			c-0.776,0-1.402,0.625-1.402,1.396v10.306v0.046v4.532c0,3.397,2.665,5.959,6.202,5.959c3.628,0,5.315-2.542,5.636-3.094
			c0.365-0.536,1.415-2.556,0.773-7.03C84.279,135.038,80.465,133.806,78.505,133.932z M81.722,144.007L81.722,144.007
			c-0.049,0.062-0.085,0.129-0.125,0.198c-0.01,0.015-0.943,1.692-3.217,1.692c-1.642,0-3.405-0.99-3.405-3.166v-4.125
			c1.029-1.421,2.236-1.792,3.709-1.887c0.618-0.048,3.076,0.418,3.338,2.245C82.546,142.608,81.72,144.007,81.722,144.007z"/>
		<path fill="#00789C" d="M108.404,133.974c-1.079,0.073-2.323,0.267-3.535,0.958v-7.039c0-0.771-0.62-1.398-1.393-1.398
			s-1.397,0.628-1.397,1.398v10.307v0.044v4.533c0,3.396,2.665,5.959,6.202,5.959c3.627,0,5.311-2.54,5.634-3.096
			c0.361-0.538,1.414-2.552,0.77-7.03C114.176,135.083,110.361,133.859,108.404,133.974z M111.621,144.052L111.621,144.052
			c-0.052,0.062-0.092,0.128-0.126,0.198c-0.011,0.015-0.943,1.689-3.214,1.689c-1.646,0-3.412-0.987-3.412-3.163v-4.128
			c1.03-1.424,2.237-1.791,3.711-1.884c0.623-0.057,3.076,0.417,3.342,2.243C112.441,142.652,111.616,144.052,111.621,144.052z"/>
		<path fill="#00789C" d="M123.716,133.974c-1.08,0.073-2.325,0.267-3.533,0.958v-7.039c0-0.771-0.625-1.398-1.395-1.398
			c-0.775,0-1.397,0.628-1.397,1.398v10.307v0.044v4.533c0,3.396,2.665,5.959,6.199,5.959c3.627,0,5.311-2.54,5.636-3.096
			c0.362-0.538,1.415-2.552,0.772-7.03C129.485,135.083,125.674,133.854,123.716,133.974z M126.933,144.052L126.933,144.052
			c-0.048,0.062-0.089,0.128-0.128,0.198c-0.012,0.015-0.943,1.689-3.215,1.689c-1.639,0-3.407-0.987-3.407-3.163v-4.128
			c1.03-1.422,2.239-1.791,3.713-1.884c0.623-0.057,3.071,0.417,3.336,2.243C127.753,142.652,126.927,144.052,126.933,144.052z"/>
	</g>
</g>
</svg>
